time,x,y,phi
34109,100.07635498046875,100.00007629394531,0.0010249222395941615
34130,99.92364501953125,99.99992370605469,0.0010249222395941615
34150,100.15271759033203,100.00086212158203,0.004099724814295769
34170,100.30542755126953,100.00211334228516,0.008199515752494335
34190,100.68718719482422,100.0072021484375,0.01332420390099287
34210,101.06891632080078,100.01424407958984,0.01844891346991062
34230,101.45059967041016,100.02324676513672,0.02357364259660244
34250,101.83222961425781,100.0342025756836,0.028698330745100975
34270,102.29010009765625,100.05016326904297,0.034848012030124664
34290,102.90039825439453,100.07645416259766,0.04304754361510277
34310,103.43423461914062,100.10328674316406,0.050222110003232956
34330,104.12024688720703,100.14411926269531,0.05944661423563957
34350,104.88197326660156,100.19729614257812,0.06969605386257172
34370,105.64311218261719,100.2582778930664,0.07994546741247177
34390,106.47956085205078,100.33479309082031,0.09121980518102646
34410,107.39095306396484,100.42948150634766,0.10351909697055817
34430,108.37683868408203,100.54520416259766,0.11684335023164749
34450,109.51221466064453,100.69620513916016,0.13221751153469086
34470,110.64513397216797,100.86463928222656,0.14759162068367004
34490,111.85047149658203,101.06409454345703,0.16399066150188446
34510,113.05237579345703,101.28328704833984,0.18038973212242126
34530,114.25052642822266,101.52216339111328,0.19678878784179688
34550,115.44459533691406,101.78065490722656,0.2131878137588501
34570,116.63426971435547,102.0586929321289,0.2295868992805481
34590,117.89295959472656,102.37608337402344,0.24701085686683655
34610,119.07254791259766,102.6941909790039,0.26340988278388977
34630,120.39353942871094,103.07377624511719,0.27980896830558777
34650,121.56206512451172,103.4303970336914,0.2962079644203186
34670,122.7245864868164,103.8061294555664,0.3126070499420166
34690,123.95262145996094,104.226806640625,0.3300310969352722
34710,125.10176849365234,104.64163208007812,0.3464301526546478
34730,126.24395751953125,105.07524871826172,0.36282920837402344
34750,127.44932556152344,105.55704498291016,0.3802531957626343
34770,128.57620239257812,106.02903747558594,0.3966522216796875
34790,129.6951904296875,106.51944732666016,0.41305121779441833
34810,130.87596130371094,107.05872344970703,0.4284253418445587
34830,131.9788055419922,107.58443450927734,0.44482436776161194
34850,132.9370880126953,108.0582275390625,0.4591735601425171
34870,133.82098388671875,108.50999450683594,0.47249776124954224
34890,134.6987762451172,108.97350311279297,0.48582199215888977
34910,135.3703155517578,109.33694458007812,0.496071457862854
34930,136.03810119628906,109.7072525024414,0.5063208341598511
34950,136.63600158691406,110.04605865478516,0.5155453085899353
34970,137.16497802734375,110.35157012939453,0.5237448215484619
34990,137.6259002685547,110.62220764160156,0.5309194326400757
35010,138.01954650878906,110.85660552978516,0.5370691418647766
35030,138.4117431640625,111.09342193603516,0.543218731880188
35050,138.6725616455078,111.25236511230469,0.5473185181617737
35070,138.99755859375,111.45272064208984,0.5524431467056274
35090,139.1921844482422,111.57353210449219,0.555517852306366
35110,139.38644409179688,111.69493865966797,0.5585926175117493
35130,139.580322265625,111.81694030761719,0.5616674423217773
35150,139.70941162109375,111.89854431152344,0.5637173652648926
35170,139.8383331298828,111.98040771484375,0.5657671689987183
35190,139.8383331298828,111.98040771484375,0.5657671689987183
35210,139.9670867919922,112.06253814697266,0.5678170323371887
35230,140.0314178466797,112.10366821289062,0.5688418745994568
35250,140.095703125,112.14486694335938,0.5698667764663696
35270,140.095703125,112.14486694335938,0.5698667764663696
35290,140.22412109375,112.22752380371094,0.5719166398048401
35310,140.2882843017578,112.2689208984375,0.5729416608810425
35330,140.35240173339844,112.31037902832031,0.5739666223526001
35350,140.35240173339844,112.31037902832031,0.5739666223526001
35370,140.60855102539062,112.47674560546875,0.5760164856910706
35390,140.80079650878906,112.60132598876953,0.5749915242195129
35410,140.99342346191406,112.72531127929688,0.5719166398048401
35430,141.31466674804688,112.93162536621094,0.5708916187286377
35450,141.70066833496094,113.17841339111328,0.5688417553901672
35470,142.08717346191406,113.42440795898438,0.566791832447052
35490,142.47418212890625,113.66960906982422,0.5647420287132263
35510,142.8616943359375,113.91401672363281,0.5626921057701111
35530,143.18441772460938,114.1180191040039,0.5637170672416687
35550,143.57168579101562,114.36282348632812,0.5637170672416687
35570,144.02378845214844,114.64796447753906,0.5626921057701111
35590,144.54046630859375,114.97383880615234,0.5626921057701111
35610,144.99227905273438,115.25944519042969,0.5637170672416687
35630,145.5086212158203,115.58585357666016,0.5637170672416687
35650,146.02496337890625,115.91226196289062,0.5637170672416687
35670,146.5413055419922,116.2386703491211,0.5637170672416687
35690,147.121826171875,116.6064682006836,0.5647420287132263
35710,147.766845703125,117.01513671875,0.5647420287132263
35730,148.34698486328125,117.38352966308594,0.5657669901847839
35750,148.9915771484375,117.79285430908203,0.5657669901847839
35770,149.5713348388672,118.1618423461914,0.5667919516563416
35790,150.2794647216797,118.61355590820312,0.5678169131278992
35810,151.04994201660156,119.1094970703125,0.5719166398048401
35830,151.9452667236328,119.69361114501953,0.5780661702156067
35850,152.8357696533203,120.28504943847656,0.5862657427787781
35870,153.7826690673828,120.92945098876953,0.5975400805473328
35890,154.78416442871094,121.62918090820312,0.6098393201828003
35910,155.83981323242188,122.38459014892578,0.6211135983467102
35930,156.88687133789062,123.15185546875,0.6323878765106201
35950,157.9252166748047,123.93087768554688,0.6436622142791748
35970,158.83360290527344,124.62853240966797,0.6549364924430847
35990,159.79486083984375,125.3825912475586,0.665185809135437
36010,160.68948364257812,126.0978012084961,0.6744102239608765
36030,161.517578125,126.77385711669922,0.6846595406532288
36050,162.34010314941406,127.45668029785156,0.6928589940071106
36070,163.214599609375,128.19638061523438,0.70208340883255
36090,164.08375549316406,128.94232177734375,0.7092579007148743
36110,164.8892364501953,129.64517211914062,0.7174573540687561
36130,165.68893432617188,130.35459899902344,0.7256568670272827
36150,166.4842529296875,131.0689239501953,0.7318065762519836
36170,167.3308563232422,131.8403778076172,0.7389811277389526
36190,168.1165771484375,132.56524658203125,0.7451308369636536
36210,168.8978271484375,133.294921875,0.7512804865837097
36230,169.67457580566406,134.02938842773438,0.7574301958084106
36250,170.44679260253906,134.7686309814453,0.763579785823822
36270,171.2700958251953,135.5648956298828,0.7687044739723206
36290,172.0893096923828,136.36537170410156,0.7738290429115295
36310,172.9044189453125,137.17002868652344,0.7789536714553833
36330,173.71539306640625,137.97886657714844,0.7840782999992371
36350,174.57688903808594,138.84515380859375,0.7881780862808228
36370,175.38035583496094,139.66143798828125,0.7933027744293213
36390,176.2338104248047,140.53564453125,0.797402560710907
36410,177.08367919921875,141.41334533691406,0.8015023469924927
36430,177.98187255859375,142.3505096435547,0.806627094745636
36450,178.87718200683594,143.29043579101562,0.8097019195556641
36470,179.7161865234375,144.1785125732422,0.813801646232605
36490,180.604736328125,145.1248321533203,0.8168764114379883
36510,181.5414276123047,146.1306610107422,0.820976197719574
36530,182.42315673828125,147.0833282470703,0.8240509629249573
36550,183.3526153564453,148.09585571289062,0.828150749206543
36570,184.27999877929688,149.11029052734375,0.8302004337310791
36590,185.20321655273438,150.12852478027344,0.8343001008033752
36610,186.17662048339844,151.20431518554688,0.8353250026702881
36630,187.09878540039062,152.22348022460938,0.8353250026702881
36650,188.0754852294922,153.29627990722656,0.8322501182556152
36670,189.00494384765625,154.30880737304688,0.8281503319740295
36690,189.93853759765625,155.31752014160156,0.8240504264831543
36710,190.87832641601562,156.32046508789062,0.8179008364677429
36730,191.9293670654297,157.42840576171875,0.8117510676383972
36750,192.9332275390625,158.475830078125,0.8066263198852539
36770,193.944580078125,159.51602172851562,0.7994515895843506
36790,194.90875244140625,160.4955596923828,0.7933019399642944
36810,195.88092041015625,161.46714782714844,0.785102367401123
36830,196.85903930664062,162.4327392578125,0.7789527177810669
36850,197.84307861328125,163.39230346679688,0.7728030681610107
36870,198.8330078125,164.34579467773438,0.7666533589363098
36890,199.8287811279297,165.29318237304688,0.7605037093162537
36910,200.941650390625,166.33900451660156,0.7543540000915527
36930,201.94900512695312,167.27407836914062,0.7482043504714966
36950,202.9620819091797,168.20294189453125,0.7420546412467957
36970,204.0364532470703,169.1779022216797,0.7369298934936523
36990,205.0599365234375,170.09527587890625,0.7307801842689514
37010,206.14523315429688,171.05807495117188,0.7256554961204529
37030,207.17713928222656,171.96597290039062,0.7215556502342224
37050,208.27127075195312,172.91871643066406,0.7164309024810791
37070,209.31150817871094,173.81704711914062,0.7123311161994934
37090,210.4143829345703,174.75965881347656,0.7072063684463501
37110,211.46286010742188,175.6483612060547,0.7031065821647644
37130,212.5743865966797,176.58074951171875,0.6979819536209106
37150,213.6887664794922,177.5097198486328,0.6949071288108826
37170,214.80599975585938,178.4352569580078,0.6918322443962097
37190,215.86801147460938,179.3077392578125,0.6877323985099792
37210,216.93359375,180.1758575439453,0.6836326122283936
37230,218.06118774414062,181.0887451171875,0.6805577874183655
37250,219.19158935546875,181.99815368652344,0.6774828433990479
37270,220.3247833251953,182.90408325195312,0.674407958984375
37290,221.46075439453125,183.80653381347656,0.6713330745697021
37310,222.5994873046875,184.70547485351562,0.6682581901550293
37330,223.74098205566406,185.60092163085938,0.6651832461357117
37350,224.94448852539062,186.54103088378906,0.6631333827972412
37370,226.09056091308594,187.4306182861328,0.6600586175918579
37390,227.23936462402344,188.31666564941406,0.6569838523864746
37410,228.51210021972656,189.29208374023438,0.653908908367157
37430,229.72613525390625,190.21856689453125,0.6518590450286865
37450,230.94395446777344,191.1400604248047,0.6477593183517456
37470,232.16366577148438,192.05905151367188,0.6457094550132751
37490,233.38525390625,192.9755401611328,0.6436595916748047
37510,234.67086791992188,193.9339141845703,0.6405847072601318
37530,236.01976013183594,194.93515014648438,0.6385347843170166
37550,237.31027221679688,195.8869171142578,0.6354599595069885
37570,238.66427612304688,196.8812255859375,0.6334100961685181
37590,240.02032470703125,197.8727569580078,0.6313601732254028
37610,241.317626953125,198.81524658203125,0.62828528881073
37630,242.7416534423828,199.84310913085938,0.6252104043960571
37650,244.10577392578125,200.82350158691406,0.6231605410575867
37670,245.85462951660156,202.05340576171875,0.6129111051559448
37690,248.26510620117188,203.6686248779297,0.5903623104095459
37710,250.85353088378906,205.2900390625,0.5596140623092651
37730,253.56134033203125,206.861328125,0.5257909893989563
37750,256.1861267089844,208.26800537109375,0.4919678568840027
37770,258.85699462890625,209.58511352539062,0.45814475417137146
37790,261.50006103515625,210.7824249267578,0.42534658312797546
37810,264.0377197265625,211.83920288085938,0.39459824562072754
37830,266.5323486328125,212.7979736328125,0.36692485213279724
37850,268.835693359375,213.6134796142578,0.3402763605117798
37870,271.0865783691406,214.3460693359375,0.31465286016464233
37890,273.20782470703125,214.9815673828125,0.29107922315597534
37910,275.26806640625,215.55303955078125,0.27058038115501404
37930,277.26611328125,216.06121826171875,0.24905656278133392
37950,279.1988830566406,216.51499938964844,0.23060761392116547
37970,281.1396789550781,216.93304443359375,0.21215860545635223
37990,282.9372863769531,217.2895050048828,0.19575954973697662
38010,284.6650390625,217.60458374023438,0.18038544058799744
38030,286.3974304199219,217.89306640625,0.16501130163669586
38050,288.1335144042969,218.158447265625,0.15168702602386475
38070,289.9488525390625,218.4093475341797,0.1373378038406372
38090,291.69158935546875,218.6265869140625,0.12401353567838669
38110,293.51275634765625,218.8308868408203,0.11171421408653259
38130,295.3363037109375,219.0127716064453,0.0994148999452591
38150,297.0857238769531,219.16737365722656,0.08814051002264023
38170,298.83648681640625,219.3058319091797,0.0789160206913948
38190,300.5887145996094,219.42453002929688,0.06764166057109833
38210,302.4183044433594,219.52964782714844,0.057392265647649765
38230,304.1725158691406,219.6142120361328,0.04816780239343643
38250,305.92742919921875,219.68258666992188,0.03894329443573952
38270,307.7591552734375,219.73892211914062,0.030743760988116264
38290,309.5149841308594,219.77671813964844,0.021519314497709274
38310,311.4237976074219,219.80018615722656,0.012294839136302471
38330,313.4090881347656,219.80831909179688,0.004095283802598715
38350,315.2416687011719,219.80079650878906,-0.004104200750589371
38370,317.1505126953125,219.77926635742188,-0.011278674006462097
38390,319.05914306640625,219.74404907226562,-0.0184530857950449
38410,320.8910827636719,219.69520568847656,-0.026652516797184944
38430,322.7989501953125,219.63064575195312,-0.03382699936628342
38450,324.7826843261719,219.55130004882812,-0.03997671976685524
38470,326.61334228515625,219.466796875,-0.046126559376716614
38490,328.3672790527344,219.3768310546875,-0.051251258701086044
38510,330.273193359375,219.26927185058594,-0.056376054883003235
38530,332.1022033691406,219.15475463867188,-0.06252580136060715
38550,334.0068054199219,219.0257110595703,-0.06765057891607285
38570,335.91070556640625,218.88690185546875,-0.07277534902095795
38590,337.66162109375,218.75022888183594,-0.07790005952119827
38610,339.5639953613281,218.5919189453125,-0.08302486687898636
38630,341.3896484375,218.4324493408203,-0.0871245414018631
38650,343.2904968261719,218.256591796875,-0.0922493189573288
38670,345.1145935058594,218.08029174804688,-0.0963490828871727
38690,346.9379577636719,217.89651489257812,-0.10044874250888824
38710,348.8367004394531,217.69924926757812,-0.10352346301078796
38730,350.7344055175781,217.49224853515625,-0.10864825546741486
38750,352.5557861328125,217.289794921875,-0.11069828271865845
38770,354.45196533203125,217.06918334960938,-0.11582303047180176
38790,356.19580078125,216.86085510253906,-0.11889777332544327
38810,358.090576171875,216.6285858154297,-0.1219724714756012
38830,359.984619140625,216.3905029296875,-0.12504713237285614
38850,361.9533996582031,216.1348114013672,-0.12914688885211945
38870,363.7702331542969,215.8950653076172,-0.1311969757080078
38890,365.5865783691406,215.65159606933594,-0.1332470178604126
38910,367.3265075683594,215.4129180908203,-0.13632166385650635
38930,369.1416015625,215.16014099121094,-0.13837134838104248
38950,370.88079833984375,214.91612243652344,-0.13939636945724487
38970,372.6950988769531,214.65777587890625,-0.1414460688829422
38990,374.6600036621094,214.37387084960938,-0.14349612593650818
39010,376.4732360839844,214.1080780029297,-0.14554618299007416
39030,378.2864685058594,213.84228515625,-0.14554618299007416
39050,380.17437744140625,213.5596160888672,-0.1486208289861679
39070,381.9862060546875,213.2845458984375,-0.15067051351070404
39090,383.7974853515625,213.00575256347656,-0.15272021293640137
39110,385.6833190917969,212.7095489501953,-0.15579494833946228
39130,387.56884765625,212.41140747070312,-0.15681996941566467
39150,389.37835693359375,212.12149047851562,-0.15887001156806946
39170,391.1872863769531,211.82786560058594,-0.16092002391815186
39190,393.07061767578125,211.51620483398438,-0.16399472951889038
39210,394.8780212402344,211.2133026123047,-0.1660444289445877
39230,396.6847839355469,210.90670776367188,-0.16809450089931488
39250,398.64141845703125,210.57054138183594,-0.17014455795288086
39270,400.4468994140625,210.25653076171875,-0.17219457030296326
39290,402.3272705078125,209.92752075195312,-0.17321957647800446
39310,404.1318054199219,209.60797119140625,-0.1752692610025406
39330,406.01116943359375,209.27317810058594,-0.17629429697990417
39350,407.89019775390625,208.9364471435547,-0.17731933295726776
39370,409.76885986328125,208.59779357910156,-0.17834436893463135
39390,411.6471862792969,208.25721740722656,-0.17936939001083374
39410,413.5251770019531,207.9147186279297,-0.18039444088935852
39430,415.4028015136719,207.57029724121094,-0.18141944706439972
39450,417.205322265625,207.23965454101562,-0.18141944706439972
39470,419.08258056640625,206.893310546875,-0.1824444979429245
39490,420.9595031738281,206.5450439453125,-0.1834694892168045
39510,422.9861755371094,206.1668243408203,-0.1844945102930069
39530,424.78765869140625,205.8306427001953,-0.1844945102930069
39550,426.6638488769531,205.478515625,-0.1855195164680481
39570,428.5396728515625,205.1244659423828,-0.18654455244541168
39590,430.49053955078125,204.75625610351562,-0.18654455244541168
39610,432.3659973144531,204.40028381347656,-0.18756955862045288
39630,434.39111328125,204.01376342773438,-0.18859460949897766
39650,436.2658386230469,203.65396118164062,-0.18961964547634125
39670,438.14093017578125,203.2960662841797,-0.18859460949897766
39690,440.0156555175781,202.93624877929688,-0.18961964547634125
39710,441.8153991699219,202.59083557128906,-0.18961964547634125
39730,443.69049072265625,202.23294067382812,-0.18859460949897766
39750,445.5659484863281,201.87696838378906,-0.18756955862045288
39770,447.36639404296875,201.53524780273438,-0.18756955862045288
39790,449.2422180175781,201.1811981201172,-0.18654455244541168
39810,451.118408203125,200.82907104492188,-0.1855195164680481
39830,453.06964111328125,200.46286010742188,-0.1855195164680481
39850,454.87078857421875,200.1248321533203,-0.1855195164680481
39870,456.7473449707031,199.77462768554688,-0.1844945102930069
39890,458.4747619628906,199.457763671875,-0.18141984939575195
39910,460.2792663574219,199.13821411132812,-0.17527002096176147
39930,461.8607177734375,198.87318420410156,-0.16604553163051605
39950,463.445068359375,198.62599182128906,-0.15477104485034943
39970,465.0325622558594,198.39993286132812,-0.1414467990398407
39990,466.4714660644531,198.2145538330078,-0.12812258303165436
40010,467.9127197265625,198.04837036132812,-0.11479837447404861
40030,469.3563537597656,197.90435791015625,-0.09942411631345749
40050,470.87799072265625,197.77459716796875,-0.08507490903139114
40070,472.3252868652344,197.67355346679688,-0.06970065087080002
40090,473.7739562988281,197.5947723388672,-0.05432634800672531
40110,475.1473083496094,197.5398406982422,-0.039977096021175385
40130,476.5976867675781,197.504150390625,-0.024602865800261497
40150,478.0484313964844,197.4907684326172,-0.009228632785379887
40170,479.4992370605469,197.4967041015625,0.004095586948096752
40190,480.7970886230469,197.52197265625,0.019469724968075752
40210,482.2471008300781,197.5695343017578,0.03279399126768112
40230,483.69622802734375,197.63938903808594,0.0481681264936924
40250,485.14410400390625,197.7315216064453,0.06354222446680069
40270,486.6666259765625,197.85035705566406,0.07789137959480286
40290,488.1111145019531,197.9854736328125,0.09326551854610443
40310,489.5536804199219,198.1398162841797,0.10658977925777435
40330,491.0697021484375,198.32406616210938,0.1209389939904213
40350,492.5829162597656,198.53004455566406,0.13528816401958466
40370,494.16876220703125,198.76747131347656,0.148612380027771
40390,495.7513122558594,199.0260009765625,0.16193656623363495
40410,497.33026123046875,199.30560302734375,0.1752607822418213
40430,498.9053649902344,199.60621643066406,0.18858498334884644
40450,500.55145263671875,199.94140625,0.20088426768779755
40470,502.2675476074219,200.3147430419922,0.2142084836959839
40490,503.9052734375,200.6886444091797,0.22445784509181976
40510,505.8389587402344,201.13845825195312,0.22855761647224426
40530,507.69781494140625,201.5728759765625,0.22958257794380188
40550,509.5580139160156,202.0015869140625,0.2265077382326126
40570,511.5693664550781,202.45428466796875,0.2213830053806305
40590,513.4346923828125,202.86007690429688,0.21420839428901672
40610,515.3037109375,203.24864196777344,0.20498396456241608
40630,517.1009521484375,203.60694885253906,0.19678442180156708
40650,518.9017333984375,203.94680786132812,0.18653495609760284
40670,520.7059326171875,204.26820373535156,0.1762855052947998
40690,522.4382934570312,204.5566864013672,0.16501113772392273
40710,524.2489624023438,204.83917236328125,0.15476171672344208
40730,525.9871215820312,205.09030151367188,0.1434873789548874
40750,527.803466796875,205.33375549316406,0.13323798775672913
40770,529.6982421875,205.5659942626953,0.12196364253759384
40790,531.4437255859375,205.75999450683594,0.11068927496671677
40810,533.34326171875,205.949462890625,0.0994148999452591
40830,535.2448120117188,206.1175079345703,0.08814051002264023
40850,537.1478271484375,206.26800537109375,0.0789160206913948
40870,539.0524291992188,206.39703369140625,0.06764166057109833
40890,541.0344848632812,206.5109100341797,0.057392265647649765
40910,542.8650512695312,206.59727478027344,0.0471428707242012
40930,544.7726440429688,206.66964721679688,0.03791837394237518
40950,546.6807861328125,206.7244110107422,0.028693877160549164
40970,548.58935546875,206.76158142089844,0.01946941576898098
40990,550.5745239257812,206.78395080566406,0.011269903741776943
41010,552.4834594726562,206.79176330566406,0.004095288924872875
41030,554.3923950195312,206.78196716308594,-0.005129236727952957
41050,556.3012084960938,206.75848388671875,-0.012303679250180721
41070,558.2097778320312,206.72129821777344,-0.019478123635053635
41090,560.1180419921875,206.67042541503906,-0.026652516797184944
41110,562.0260620117188,206.60977172851562,-0.031777311116456985
41130,563.93359375,206.53543090820312,-0.03895169869065285
41150,565.6881103515625,206.4580535888672,-0.04407649114727974
41170,567.5183715820312,206.3660430908203,-0.05022624135017395
41190,569.4243774414062,206.26043701171875,-0.05535101890563965
41210,571.329833984375,206.1450653076172,-0.06047578901052475
41230,573.1583862304688,206.02305603027344,-0.06662554293870926
41250,575.0624389648438,205.88619995117188,-0.07175033539533615
41270,576.8134765625,205.75132751464844,-0.07687502354383469
41290,578.7160034179688,205.594970703125,-0.08199983090162277
41310,580.6177368164062,205.42886352539062,-0.0871245414018631
41330,582.5185546875,205.2530059814453,-0.0922493189573288
41350,584.41845703125,205.06741333007812,-0.0973740890622139
41370,586.3173828125,204.87208557128906,-0.10249881446361542
41390,588.2156982421875,204.67092895507812,-0.10557355731725693
41410,590.0372924804688,204.47035217285156,-0.10967329144477844
41430,591.9336547851562,204.25169372558594,-0.11479800194501877
41450,593.9049682617188,204.01620483398438,-0.11889777332544327
41470,595.7997436523438,203.783935546875,-0.1219724714756012
41490,597.6182861328125,203.55723571777344,-0.1240224838256836
41510,599.5118408203125,203.3152618408203,-0.12709717452526093
41530,601.3291625976562,203.07923889160156,-0.12914688885211945
41550,603.221435546875,202.82757568359375,-0.13222162425518036
41570,605.1129150390625,202.57008361816406,-0.1352962851524353
41590,606.92822265625,202.3191680908203,-0.1373463124036789
41610,608.894287109375,202.04331970214844,-0.13939599692821503
41630,610.7085571289062,201.78497314453125,-0.141446053981781
41650,612.59814453125,201.513916015625,-0.1424711048603058
41670,614.562744140625,201.22799682617188,-0.14452114701271057
41690,616.3756713867188,200.96035766601562,-0.14657118916511536
41710,618.339111328125,200.6663818359375,-0.14862120151519775
41730,620.2261352539062,200.37791442871094,-0.15169592201709747
41750,622.037109375,200.09727478027344,-0.1537456214427948
41770,623.8475341796875,199.8129119873047,-0.15579569339752197
41790,625.733642578125,199.51864624023438,-0.1547706425189972
41810,627.5454711914062,199.2435760498047,-0.1506708860397339
41830,629.2083129882812,199.0050506591797,-0.14247147738933563
41850,630.797607421875,198.79202270507812,-0.1332470178604126
41870,632.3135986328125,198.60777282714844,-0.12094783037900925
41890,633.9078369140625,198.43553161621094,-0.1076236143708229
41910,635.3521728515625,198.29891967773438,-0.09429939836263657
41930,636.7984619140625,198.18453979492188,-0.07892510294914246
41950,638.246337890625,198.0924072265625,-0.06355082243680954
41970,639.6953125,198.01956176757812,-0.050226613879203796
41990,641.145263671875,197.96900939941406,-0.034852396696805954
42010,642.5957641601562,197.9407501220703,-0.019478123635053635
42030,643.97021484375,197.9365234375,-0.0030791684985160828
42050,645.3446044921875,197.95201110839844,0.011270037852227688
42070,646.794921875,197.99066162109375,0.026644134894013405
42090,648.2444458007812,198.05160522460938,0.042018238455057144
42110,649.61669921875,198.12904357910156,0.056367430835962296
42130,651.1400756835938,198.23695373535156,0.07071664184331894
42150,652.5855102539062,198.3616943359375,0.08609074354171753
42170,654.0291748046875,198.5056915283203,0.09941496700048447
42190,655.4707641601562,198.66891479492188,0.11273916810750961
42210,656.8341064453125,198.84312438964844,0.12708833813667297
42230,658.421875,199.06753540039062,0.14041255414485931
42250,659.8555908203125,199.28970336914062,0.15373679995536804
42270,661.3617553710938,199.54209899902344,0.16603608429431915
42290,662.8641357421875,199.8160858154297,0.1803852766752243
42310,664.363037109375,200.10853576660156,0.1926846206188202
42330,666.0836181640625,200.4607391357422,0.20190908014774323
42350,667.8023681640625,200.82174682617188,0.20703379809856415
42370,669.520751953125,201.18450927734375,0.20805872976779938
42390,671.3153686523438,201.55569458007812,0.20395897328853607
42410,673.1122436523438,201.91583251953125,0.19780932366847992
42430,674.836669921875,202.2486114501953,0.19063471257686615
42450,676.5634155273438,202.56900024414062,0.18346011638641357
42470,678.4434814453125,202.89993286132812,0.17423559725284576
42490,680.3264770507812,203.2135009765625,0.16501112282276154
42510,682.1371459960938,203.49598693847656,0.15476171672344208
42530,684.0259399414062,203.7728271484375,0.14553725719451904
42550,685.917724609375,204.0283660888672,0.13426291942596436
42570,687.7362670898438,204.2550506591797,0.12401348352432251
42590,689.5570068359375,204.4630889892578,0.11376404017210007
42610,691.3798217773438,204.65245056152344,0.10351460427045822
42630,693.2044677734375,204.8231201171875,0.09326520562171936
42650,695.03076171875,204.97508239746094,0.0830158144235611
42670,696.934814453125,205.11192321777344,0.07174146920442581
42690,698.8402709960938,205.22727966308594,0.060467131435871124
42710,700.7467041015625,205.32505798339844,0.05124262347817421
42730,702.8065795898438,205.4116668701172,0.04201812669634819
42750,704.7144775390625,205.47425842285156,0.03279367461800575
42770,706.6229248046875,205.5192413330078,0.023569218814373016
42790,708.5316162109375,205.550537109375,0.01639460399746895
42810,710.516845703125,205.56680297851562,0.008195093832910061
42830,712.42578125,205.56875610351562,0.0010204819263890386
42850,714.4110717773438,205.55857849121094,-0.005129236727952957
42870,716.3198852539062,205.53509521484375,-0.012303679250180721
42890,718.1521606445312,205.50128173828125,-0.018453460186719894
42910,719.9841918945312,205.45619201660156,-0.024603240191936493
42930,721.8922119140625,205.39553833007812,-0.03177768364548683
42950,723.7235107421875,205.3260498046875,-0.037927426397800446
42970,725.6306762695312,205.243896484375,-0.043052203953266144
42990,727.4610595703125,205.1537628173828,-0.049201980233192444
43010,729.3671875,205.05010986328125,-0.05432672053575516
43030,731.1964111328125,204.93934631347656,-0.06047653779387474
43050,733.1012573242188,204.814208984375,-0.06560125201940536
43070,735.0054321289062,204.67930603027344,-0.07072605192661285
43090,736.9851684570312,204.53089904785156,-0.07482573390007019
43110,738.8880004882812,204.37843322753906,-0.07995051145553589
43130,740.7900390625,204.21621704101562,-0.0850752741098404
43150,742.6915893554688,204.04815673828125,-0.08814993500709534
43170,744.66845703125,203.86526489257812,-0.09224969893693924
43190,746.64453125,203.6742706298828,-0.09634945541620255
43210,748.5440673828125,203.4847869873047,-0.09942411631345749
43230,750.5187377929688,203.27963256835938,-0.10352384299039841
43250,752.4925537109375,203.06637573242188,-0.1076236143708229
43270,754.3898315429688,202.85548400878906,-0.11069828271865845
43290,756.2864379882812,202.63876342773438,-0.11377297341823578
43310,758.182373046875,202.4162139892578,-0.11684770882129669
43330,760.229248046875,202.16957092285156,-0.11992242187261581
43350,762.123779296875,201.93536376953125,-0.12299709767103195
43370,764.017578125,201.69534301757812,-0.1260717809200287
43390,765.91064453125,201.44949340820312,-0.1291465014219284
43410,767.8029174804688,201.1978302001953,-0.13222122192382812
43430,769.6190185546875,200.95249938964844,-0.1342712640762329
43450,771.5859375,200.6826934814453,-0.1363212764263153
43470,773.4769287109375,200.42132568359375,-0.1373463124036789
43490,775.4429931640625,200.14547729492188,-0.13939599692821503
43510,777.2572631835938,199.8871307373047,-0.141446053981781
43530,779.071533203125,199.6287841796875,-0.1414460688829422
43550,780.8868408203125,199.37786865234375,-0.1373463124036789
43570,782.6282348632812,199.14990234375,-0.13017192482948303
43590,784.2200317382812,198.95643615722656,-0.1209474503993988
43610,785.8142700195312,198.78419494628906,-0.10762324184179306
43630,787.33447265625,198.6388397216797,-0.09532405436038971
43650,788.7803955078125,198.52000427246094,-0.08199983090162277
43670,790.3038330078125,198.4136505126953,-0.06970065087080002
43690,791.8286743164062,198.32916259765625,-0.05535139515995979
43710,793.3545532226562,198.2665557861328,-0.04100212827324867
43730,794.8811645507812,198.22586059570312,-0.02665289118885994
43750,796.3318481445312,198.20652770996094,-0.013328686356544495
43770,797.7826538085938,198.20948791503906,0.002045410219579935
43790,799.3096313476562,198.23452758789062,0.01639457419514656
43810,800.8360595703125,198.28146362304688,0.030743760988116264
43830,802.3616943359375,198.35031127929688,0.04509296268224716
43850,803.8861694335938,198.4410400390625,0.0594421811401844
43870,805.4854736328125,198.5576171875,0.07276644557714462
43890,807.0071411132812,198.68736267089844,0.08506575971841812
43910,808.450927734375,198.8298797607422,0.09838998317718506
43930,809.9683837890625,199.00169372558594,0.11273913085460663
43950,811.4076538085938,199.18409729003906,0.12606334686279297
43970,812.8443603515625,199.3856658935547,0.1393875628709793
43990,814.42919921875,199.6295928955078,0.15271177887916565
44010,815.8600463867188,199.86936950683594,0.16603600978851318
44030,817.3624267578125,200.1433563232422,0.18038521707057953
44050,819.0872192382812,200.474365234375,0.18960969150066376
44070,820.7356567382812,200.79774475097656,0.19370949268341064
44090,822.4586791992188,201.13758850097656,0.19473445415496826
44110,824.2573852539062,201.488525390625,0.1926846206188202
44130,826.0581665039062,201.82838439941406,0.18653494119644165
44150,827.8610229492188,202.15716552734375,0.18038532137870789
44170,829.66650390625,202.47116088867188,0.1721857637166977
44190,831.3994750976562,202.75608825683594,0.16296124458312988
44210,833.2107543945312,203.0348663330078,0.15271179378032684
44230,835.0247802734375,203.29505920410156,0.1424623727798462
44250,836.8413696289062,203.53665161132812,0.13221296668052673
44270,838.7363891601562,203.76695251464844,0.12093864381313324
44290,840.4820556640625,203.95916748046875,0.10966429859399796
44310,842.4575805664062,204.15621948242188,0.09941486269235611
44330,844.2828979492188,204.3194122314453,0.08916541934013367
44350,846.18603515625,204.46795654296875,0.0778910294175148
44370,848.0905151367188,204.59893798828125,0.06866656243801117
44390,849.99609375,204.71234130859375,0.05944211781024933
44410,851.9026489257812,204.80816650390625,0.05021761730313301
44430,853.9625854492188,204.8926544189453,0.04099311679601669
44450,855.8704223632812,204.9571990966797,0.033818554133176804
44470,857.77880859375,205.004150390625,0.024594079703092575
44490,859.7638549804688,205.0366973876953,0.01639452576637268
44510,861.7490844726562,205.05296325683594,0.008195015601813793
44530,863.6580200195312,205.05491638183594,0.0010204036952927709
44550,865.643310546875,205.04066467285156,-0.007179313339293003
44570,867.5520629882812,205.0132598876953,-0.014353703707456589
44590,869.4605712890625,204.97216796875,-0.02152819000184536
44610,871.3687133789062,204.91738891601562,-0.02870294451713562
44630,873.2765502929688,204.8528289794922,-0.033827751874923706
44650,875.26025390625,204.7734832763672,-0.03997747227549553
44670,877.0908813476562,204.68898010253906,-0.046127308160066605
44690,878.997314453125,204.5911865234375,-0.05125200003385544
44710,880.826904296875,204.48605346679688,-0.05740183964371681
44730,882.656005859375,204.3734130859375,-0.06150154769420624
44750,884.5607299804688,204.24632263183594,-0.06662628799676895
44770,886.4647827148438,204.10946655273438,-0.07175108045339584
44790,888.3681030273438,203.96286010742188,-0.07687577605247498
44810,890.1947021484375,203.8146209716797,-0.08097554743289948
44830,892.0965576171875,203.6504669189453,-0.08610028773546219
44850,893.9979248046875,203.48046875,-0.08917497098445892
44870,895.974609375,203.29556274414062,-0.09327473491430283
44890,897.7985229492188,203.11740112304688,-0.09737446159124374
44910,899.6217041015625,202.9317626953125,-0.10147415846586227
44930,901.3683471679688,202.7484893798828,-0.10454889386892319
44950,903.2658081054688,202.53955078125,-0.10967365652322769
44970,905.0865478515625,202.3314971923828,-0.11377333849668503
44990,906.9064331054688,202.11598205566406,-0.11787310987710953
45010,908.7258911132812,201.89674377441406,-0.1199231743812561
45030,910.6204223632812,201.66253662109375,-0.12299785017967224
45050,912.5142211914062,201.42250061035156,-0.12607252597808838
45070,914.331298828125,201.1846160888672,-0.13017231225967407
45090,916.2233276367188,200.93099975585938,-0.1332470178604126
45110,918.1145629882812,200.67156982421875,-0.13632166385650635
45130,920.0055541992188,200.4102020263672,-0.13734667003154755
45150,921.8956909179688,200.1430206298828,-0.14042140543460846
45170,923.8609008789062,199.8611297607422,-0.14247147738933563
45190,925.599609375,199.61354064941406,-0.14144645631313324
45210,927.4154663085938,199.36634826660156,-0.13529665768146515
45230,928.9302978515625,199.1727752685547,-0.12709717452526093
45250,930.5230712890625,198.9874725341797,-0.11582266539335251
45270,931.8904418945312,198.84823608398438,-0.10147341340780258
45290,933.3358764648438,198.72348022460938,-0.08609916269779205
45310,934.7071533203125,198.6305694580078,-0.067650206387043
45330,936.0036010742188,198.56539916992188,-0.05022624135017395
45350,937.3773803710938,198.521728515625,-0.031777311116456985
45370,938.6753540039062,198.5030975341797,-0.014353330247104168
45390,939.9734497070312,198.507080078125,0.003070648992434144
45410,941.1949462890625,198.53086853027344,0.01946972869336605
45430,942.4921264648438,198.57875061035156,0.036893729120492935
45450,943.788330078125,198.64923095703125,0.054317720234394073
45470,945.0830688476562,198.74227905273438,0.0717417448759079
45490,946.3759765625,198.8578643798828,0.08916572481393814
45510,947.6666870117188,198.9959716796875,0.10658976435661316
45530,948.954833984375,199.1565399169922,0.1240137442946434
45550,950.239990234375,199.3395233154297,0.14143776893615723
45570,951.521728515625,199.5448760986328,0.15886177122592926
45590,952.7996826171875,199.77252197265625,0.1762857437133789
45610,954.073486328125,200.02239990234375,0.19370977580547333
45630,955.568359375,200.3347930908203,0.20600907504558563
45650,957.3606567382812,200.71701049804688,0.21010880172252655
45670,959.1521606445312,201.1029052734375,0.21215863525867462
45690,960.7943725585938,201.45663452148438,0.21215859055519104
45710,962.3636474609375,201.7862548828125,0.2070339024066925
45730,964.0104370117188,202.11807250976562,0.1988343447446823
45750,965.7352294921875,202.44908142089844,0.1896098554134369
45770,967.4629516601562,202.76416015625,0.18038541078567505
45790,969.2691040039062,203.07444763183594,0.1701359897851944
45810,971.1533813476562,203.3802947998047,0.16091148555278778
45830,973.041015625,203.66488647460938,0.14963708817958832
45850,974.8558349609375,203.91949462890625,0.13938763737678528
45870,976.7491455078125,204.16339111328125,0.1281132698059082
45890,978.493408203125,204.3681182861328,0.11683890223503113
45910,980.3917236328125,204.5692596435547,0.10556456446647644
45930,982.14013671875,204.73460388183594,0.09429021924734116
45950,984.1184692382812,204.90126037597656,0.08404083549976349
45970,986.0220947265625,205.0439453125,0.07481633126735687
45990,987.9269409179688,205.1690673828125,0.06559183448553085
46010,989.9092407226562,205.2788848876953,0.0553424172103405
46030,991.816162109375,205.3668975830078,0.04611796513199806
46050,993.7238159179688,205.43731689453125,0.03689348325133324
46070,995.6320190429688,205.49012756347656,0.02766897901892662
46090,997.4642944335938,205.5258026123047,0.01946946047246456
46110,999.2967529296875,205.5464630126953,0.011269948445260525
46130,1001.2056884765625,205.5542755126953,0.004095333628356457
46150,1003.0382690429688,205.5467529296875,-0.004104200750589371
46170,1004.9470825195312,205.5252227783203,-0.011278674006462097
46190,1006.855712890625,205.49000549316406,-0.0184530857950449
46210,1008.5350952148438,205.4486846923828,-0.024602865800261497
46230,1010.443115234375,205.38803100585938,-0.031777311116456985
46250,1012.2744140625,205.31854248046875,-0.0379270538687706
46270,1014.1815795898438,205.23638916015625,-0.0430518314242363
46290,1016.088134765625,205.1405487060547,-0.05022624135017395
46310,1017.9180297851562,205.04104614257812,-0.054325979202985764
46330,1019.7472534179688,204.93028259277344,-0.06047578901052475
46350,1021.652099609375,204.80514526367188,-0.06560050696134567
46370,1023.4039306640625,204.68104553222656,-0.07072530686855316
46390,1025.307373046875,204.53639221191406,-0.0758500024676323
46410,1027.1337890625,204.38629150390625,-0.08199983090162277
46430,1028.9595947265625,204.22869873046875,-0.0860995277762413
46450,1030.7847900390625,204.06362915039062,-0.09019925445318222
46470,1032.6092529296875,203.8910675048828,-0.09429902583360672
46490,1034.4329833984375,203.71102905273438,-0.09839872270822525
46510,1036.4078369140625,203.5078887939453,-0.10249844193458557
46530,1038.22998046875,203.3129119873047,-0.10659821331501007
46550,1040.12744140625,203.10397338867188,-0.1096729040145874
46570,1041.9482421875,202.8959197998047,-0.11377259343862534
46590,1043.84423828125,202.67337036132812,-0.11684732884168625
46610,1045.6634521484375,202.4522705078125,-0.12094708532094955
46630,1047.5577392578125,202.21612548828125,-0.1240217313170433
46650,1049.4512939453125,201.97415161132812,-0.12709644436836243
46670,1051.2686767578125,201.73812866210938,-0.1291465014219284
46690,1053.2369384765625,201.47840881347656,-0.13119657337665558
46710,1055.0533447265625,201.2349395751953,-0.13324664533138275
46730,1056.944580078125,200.9755096435547,-0.1363212913274765
46750,1058.7596435546875,200.7227325439453,-0.13837096095085144
46770,1060.6500244140625,200.45748901367188,-0.13939598202705383
46790,1062.46435546875,200.1991424560547,-0.14144569635391235
46810,1064.4293212890625,199.9152374267578,-0.14349575340747833
46830,1066.24365234375,199.65689086914062,-0.141446053981781
46850,1067.832275390625,199.43898010253906,-0.1363212913274765
46870,1069.4228515625,199.23573303222656,-0.12709681689739227
46890,1070.8638916015625,199.0680694580078,-0.11582229286432266
46910,1072.2313232421875,198.9288330078125,-0.10147301852703094
46930,1073.600830078125,198.81204223632812,-0.08507377654314041
46950,1074.895751953125,198.7216339111328,-0.06969952583312988
46970,1076.3446044921875,198.6458282470703,-0.05227553844451904
46990,1077.79443359375,198.59230041503906,-0.03690129518508911
47010,1079.015869140625,198.5672607421875,-0.02050241269171238
47030,1080.31396484375,198.56326293945312,-0.0030784194823354483
47050,1081.53564453125,198.5795440673828,0.013320627622306347
47070,1082.8331298828125,198.61944580078125,0.030744632706046104
47090,1084.053466796875,198.67701721191406,0.04714372009038925
47110,1085.272705078125,198.7545928955078,0.06354275345802307
47130,1086.490478515625,198.85215759277344,0.07994182407855988
47150,1087.782470703125,198.9783477783203,0.0973658487200737
47170,1089.072021484375,199.1270294189453,0.11478984355926514
47190,1090.3587646484375,199.29815673828125,0.13221387565135956
47210,1091.5670166015625,199.4790496826172,0.14861290156841278
47230,1092.697021484375,199.66603088378906,0.16398699581623077
47250,1093.89892578125,199.88522338867188,0.18038608133792877
47270,1095.1717529296875,200.14031982421875,0.1978100687265396
47290,1096.5159912109375,200.42698669433594,0.21010932326316833
47310,1098.232421875,200.79855346679688,0.21318413317203522
47330,1100.0235595703125,201.186279296875,0.21318410336971283
47350,1101.7412109375,201.5525665283203,0.21010926365852356
47370,1103.310546875,201.88218688964844,0.20703443884849548
47390,1105.0318603515625,202.23085021972656,0.1998598277568817
47410,1106.755615234375,202.56715393066406,0.19268524646759033
47430,1108.55712890625,202.9033203125,0.18448570370674133
47450,1110.361328125,203.22471618652344,0.17628614604473114
47470,1112.318603515625,203.55685424804688,0.16808663308620453
47490,1114.1278076171875,203.84861755371094,0.15988709032535553
47510,1115.93994140625,204.121826171875,0.1496376246213913
47530,1117.7542724609375,204.38015747070312,0.1414380967617035
47550,1119.4952392578125,204.61167907714844,0.13221363723278046
47570,1121.313720703125,204.83836364746094,0.12401407957077026
47590,1123.2857666015625,205.06777954101562,0.11581454426050186
47610,1125.1077880859375,205.26461791992188,0.10761503130197525
47630,1126.930908203125,205.4502410888672,0.10146535933017731
47650,1128.7554931640625,205.62091064453125,0.0932658240199089
47670,1130.5811767578125,205.78036499023438,0.08711614459753036
47690,1132.4840087890625,205.93280029296875,0.07994154840707779
47710,1134.3116455078125,206.06790161132812,0.07379188388586044
47730,1136.21630859375,206.19497680664062,0.06661728769540787
47750,1138.0455322265625,206.30572509765625,0.06046765297651291
47770,1139.8753662109375,206.40521240234375,0.05431798845529556
47790,1141.705810546875,206.4934539794922,0.048168350011110306
47810,1143.613037109375,206.57559204101562,0.04304363951086998
47830,1145.4443359375,206.6431884765625,0.03689398616552353
47850,1147.4285888671875,206.70828247070312,0.032794248312711716
47870,1149.260498046875,206.75711059570312,0.026644570752978325
47890,1151.1690673828125,206.79818725585938,0.021519893780350685
47910,1152.9249267578125,206.8341827392578,0.0204949751496315
47930,1154.6806640625,206.87557983398438,0.02356981858611107
47950,1156.283447265625,206.92486572265625,0.030744411051273346
47970,1157.733154296875,206.9828338623047,0.03996885567903519
47990,1159.181884765625,207.06011962890625,0.05329307168722153
48010,1160.55322265625,207.15301513671875,0.06764226406812668
48030,1161.9990234375,207.2733154296875,0.08301641047000885
48050,1163.36669921875,207.40972900390625,0.09941544383764267
48070,1164.5802001953125,207.5509033203125,0.11581449955701828
48090,1165.791259765625,207.7119598388672,0.13221357762813568
48110,1167.0748291015625,207.9054718017578,0.14963753521442413
48130,1168.27978515625,208.10739135742188,0.16603660583496094
48150,1169.5560302734375,208.34420776367188,0.18346062302589417
48170,1170.75341796875,208.58676147460938,0.19985966384410858
48190,1172.02099609375,208.86660766601562,0.217283695936203
48210,1173.283447265625,209.16848754882812,0.23470765352249146
48230,1174.54052734375,209.49232482910156,0.2521316707134247
48250,1175.718505859375,209.81646728515625,0.2685307562351227
48270,1176.9638671875,210.1826171875,0.2859547734260559
48290,1178.130126953125,210.54641723632812,0.3023538589477539
48310,1179.3624267578125,210.95448303222656,0.31977784633636475
48330,1180.58740234375,211.3839569091797,0.3372018337249756
48350,1181.7335205078125,211.80702209472656,0.3536009192466736
48370,1182.9432373046875,212.2776641845703,0.3710249066352844
48390,1184.074462890625,212.73924255371094,0.38742393255233765
48410,1185.267578125,213.2505340576172,0.4048479497432709
48430,1186.3824462890625,213.75009155273438,0.4212469756603241
48450,1187.489013671875,214.2678680419922,0.43764597177505493
48470,1188.5869140625,214.80372619628906,0.45404499769210815
48490,1189.74462890625,215.3909454345703,0.46941906213760376
48510,1191.0296630859375,216.06442260742188,0.4827432632446289
48530,1192.37353515625,216.78993225097656,0.4950425624847412
48550,1193.7742919921875,217.57044982910156,0.5083667635917664
48570,1195.09912109375,218.3301544189453,0.5206660032272339
48590,1196.4144287109375,219.10609436035156,0.5329653024673462
48610,1197.589599609375,219.81893920898438,0.5452646017074585
48630,1198.9493408203125,220.66879272460938,0.5585888028144836
48650,1200.234375,221.49403381347656,0.570888102054596
48670,1201.7032470703125,222.4566650390625,0.5801125168800354
48690,1203.1651611328125,223.4298095703125,0.5872871279716492
48710,1204.6241455078125,224.40744018554688,0.590362012386322
48730,1206.0821533203125,225.38656616210938,0.5913869142532349
48750,1207.6055908203125,226.40513610839844,0.5893369913101196
48770,1209.131103515625,227.42059326171875,0.5872871279716492
48790,1210.7235107421875,228.4734649658203,0.5842123031616211
48810,1212.25634765625,229.4779510498047,0.5801124572753906
48830,1213.793212890625,230.47613525390625,0.5760126113891602
48850,1215.26904296875,231.42819213867188,0.5729377269744873
48870,1216.87841796875,232.45480346679688,0.567812979221344
48890,1218.429443359375,233.4308319091797,0.5616633892059326
48910,1219.9844970703125,234.40049743652344,0.5575635433197021
48930,1221.6094970703125,235.40225219726562,0.5524387955665588
48950,1223.1092529296875,236.31619262695312,0.5473140478134155
48970,1224.6781005859375,237.26344299316406,0.5432142615318298
48990,1226.252685546875,238.20103454589844,0.5370646119117737
49010,1227.8978271484375,239.1692657470703,0.5319398641586304
49030,1229.48095703125,240.09228515625,0.5278400182723999
49050,1231.133056640625,241.04869079589844,0.5247652530670166
49070,1232.7227783203125,241.9603271484375,0.5206654667854309
49090,1234.3836669921875,242.90145874023438,0.5155407786369324
49110,1235.9818115234375,243.79840087890625,0.5114410519599915
49130,1237.6494140625,244.7275848388672,0.5083661675453186
49150,1239.25390625,245.613037109375,0.5042663216590881
49170,1240.9959716796875,246.5651397705078,0.5001665353775024
49190,1242.6739501953125,247.4754638671875,0.49709171056747437
49210,1244.4228515625,248.4150390625,0.49299195408821106
49230,1246.1072998046875,249.3133087158203,0.48991715908050537
49250,1247.7926025390625,250.2098388671875,0.48889222741127014
49270,1249.4788818359375,251.10464477539062,0.4878673553466797
49290,1251.162353515625,252.004638671875,0.49094218015670776
49310,1252.843017578125,252.90980529785156,0.49401697516441345
49330,1254.5889892578125,253.85475158691406,0.4960668981075287
49350,1256.2669677734375,254.76507568359375,0.4970918297767639
49370,1257.8778076171875,255.6389923095703,0.4970918297767639
49390,1259.4903564453125,256.5096130371094,0.4950419068336487
49410,1261.104736328125,257.3769226074219,0.49299198389053345
49430,1262.8555908203125,258.3128967285156,0.4909420609474182
49450,1264.5418701171875,259.20770263671875,0.4878672659397125
49470,1266.1624755859375,260.0633850097656,0.4858173727989197
49490,1267.853271484375,260.9495544433594,0.4827425181865692
49510,1269.4781494140625,261.79693603515625,0.4806925356388092
49530,1271.1065673828125,262.63763427734375,0.4765928387641907
49550,1272.8037109375,263.5116271972656,0.47556793689727783
49570,1274.5035400390625,264.3804016113281,0.47249308228492737
49590,1276.1387939453125,265.2077331542969,0.4683932960033417
49610,1277.7757568359375,266.0317077636719,0.46634334325790405
49630,1279.346923828125,266.8165283203125,0.46326857805252075
49650,1281.0572509765625,267.6643371582031,0.4601936936378479
49670,1282.7684326171875,268.5104064941406,0.45916876196861267
49690,1284.4822998046875,269.3511962890625,0.4560938775539398
49710,1286.0614013671875,270.119873046875,0.4530191123485565
49730,1287.7786865234375,270.95361328125,0.4519941806793213
49750,1289.4288330078125,271.7506408691406,0.44994425773620605
49770,1291.148681640625,272.5791015625,0.44891929626464844
49790,1292.80126953125,273.37103271484375,0.4468693435192108
49810,1294.5252685546875,274.190673828125,0.44379448890686035
49830,1296.2501220703125,275.008544921875,0.44276952743530273
49850,1297.975830078125,275.82464599609375,0.44174453616142273
49870,1299.6341552734375,276.6047058105469,0.4396946430206299
49890,1301.364013671875,277.4119567871094,0.4366197884082794
49910,1303.093017578125,278.2209777832031,0.43764474987983704
49930,1304.7529296875,278.9976501464844,0.4376447796821594
49950,1306.4810791015625,279.8084411621094,0.43866968154907227
49970,1308.206787109375,280.6245422363281,0.44174447655677795
49990,1309.929931640625,281.4459533691406,0.44481921195983887
50010,1311.650634765625,282.2726745605469,0.44789400696754456
50030,1313.3687744140625,283.10467529296875,0.450968861579895
50050,1315.014892578125,283.91015625,0.45506855845451355
50070,1316.65771484375,284.7223815917969,0.45916828513145447
50090,1318.297119140625,285.54132080078125,0.4632680416107178
50110,1319.934814453125,286.3636169433594,0.465317964553833
50130,1321.5692138671875,287.192626953125,0.46941766142845154
50150,1323.26904296875,288.0614013671875,0.4724924564361572
50170,1324.8974609375,288.902099609375,0.47659221291542053
50190,1326.5223388671875,289.7494812011719,0.4806918799877167
50210,1328.2122802734375,290.6373596191406,0.48376667499542236
50230,1329.8310546875,291.4963684082031,0.48786646127700806
50250,1331.4462890625,292.36199951171875,0.491966187953949
50270,1333.1260986328125,293.2688903808594,0.4950409233570099
50290,1334.8031005859375,294.1809387207031,0.49811574816703796
50310,1336.477294921875,295.09814453125,0.5011906027793884
50330,1338.148681640625,296.0204772949219,0.5042654275894165
50350,1339.817138671875,296.94793701171875,0.5073401927947998
50370,1341.4827880859375,297.8805236816406,0.5104150176048279
50390,1343.2130126953125,298.8539733886719,0.5124648809432983
50410,1344.808349609375,299.7558288574219,0.5145147442817688
50429,1346.40185546875,300.66094970703125,0.5165645480155945
50449,1347.9915771484375,301.5726013183594,0.5206642746925354
50469,1349.5794677734375,302.48748779296875,0.5227141380310059
50489,1351.2305908203125,303.4455871582031,0.5257890224456787
50509,1352.8118896484375,304.3718566894531,0.5298887491226196
50529,1354.32275390625,305.26727294921875,0.5350134372711182
50549,1355.9578857421875,306.2523193359375,0.5421879887580872
50569,1357.5218505859375,307.20758056640625,0.5483375787734985
50589,1359.079833984375,308.1724548339844,0.5544871091842651
50609,1360.695556640625,309.18914794921875,0.5616617798805237
50629,1362.2406005859375,310.1746826171875,0.5678113698959351
50649,1363.8426513671875,311.21282958984375,0.5749859809875488
50669,1365.3743896484375,312.2188720703125,0.581135630607605
50689,1366.96240234375,313.27825927734375,0.5883102416992188
50709,1368.4805908203125,314.30462646484375,0.5944598913192749
50729,1369.992431640625,315.3403015136719,0.600609540939331
50749,1371.561767578125,316.42718505859375,0.6057341694831848
50769,1373.0618896484375,317.4798583984375,0.6118837594985962
50789,1374.5555419921875,318.5417175292969,0.6180334091186523
50809,1376.105712890625,319.6557922363281,0.6231580376625061
50829,1377.650146484375,320.7778015136719,0.6282827258110046
50849,1379.12841796875,321.8609924316406,0.6323824524879456
50869,1380.6624755859375,322.9971923828125,0.6375072002410889
50889,1382.2529296875,324.18536376953125,0.6416069269180298
50909,1383.654541015625,325.24365234375,0.6467316746711731
50929,1385.112548828125,326.3539123535156,0.650831401348114
50949,1386.56591796875,327.47015380859375,0.6549311876296997
50969,1388.0762939453125,328.6375427246094,0.6580060124397278
50989,1389.4603271484375,329.7186584472656,0.6631305813789368
51009,1390.89990234375,330.8526916503906,0.6672303676605225
51029,1392.3348388671875,331.99261474609375,0.6713301539421082
51049,1393.825927734375,333.18463134765625,0.6744049787521362
51069,1395.3133544921875,334.3812255859375,0.6774798631668091
51089,1396.6783447265625,335.4862976074219,0.6805545687675476
51109,1398.1583251953125,336.6920166015625,0.6836293339729309
51129,1399.5164794921875,337.8054504394531,0.686704158782959
51149,1400.928955078125,338.9731140136719,0.6908038854598999
51169,1402.3389892578125,340.1436462402344,0.6928536891937256
51189,1403.74658203125,341.31707763671875,0.6949034333229065
51209,1405.2091064453125,342.5439147949219,0.6979783177375793
51229,1406.6107177734375,343.72454833984375,0.7000281810760498
51249,1408.0694580078125,344.95587158203125,0.7010531425476074
51269,1409.5244140625,346.1916809082031,0.7041279077529907
51289,1410.918701171875,347.38092041015625,0.7061777710914612
51309,1412.310546875,348.572998046875,0.7082276344299316
51329,1413.699951171875,349.7679443359375,0.7102775573730469
51349,1415.1434326171875,351.0171203613281,0.713352382183075
51369,1416.585693359375,352.26776123046875,0.7143773436546326
51389,1417.9677734375,353.4712219238281,0.7164270877838135
51409,1419.4061279296875,354.7262878417969,0.7174520492553711
51429,1420.840576171875,355.98577880859375,0.7205268144607544
51449,1422.2738037109375,357.2467346191406,0.7215518355369568
51469,1423.647216796875,358.4600830078125,0.7236016988754272
51489,1425.01806640625,359.6762390136719,0.7256515622138977
51509,1426.44482421875,360.94451904296875,0.7266765236854553
51529,1427.81201171875,362.1648864746094,0.7287263870239258
51549,1429.1766357421875,363.3880615234375,0.7307762503623962
51569,1430.4832763671875,364.56158447265625,0.7318012714385986
51589,1431.9022216796875,365.838623046875,0.732826292514801
51609,1433.3779296875,367.166748046875,0.7328263521194458
51629,1434.68212890625,368.34295654296875,0.733851432800293
51649,1436.098388671875,369.6228942871094,0.7348764538764954
51669,1437.4580078125,370.8516540527344,0.7348764538764954
51689,1438.8729248046875,372.133056640625,0.7359014749526978
51709,1440.2313232421875,373.3631896972656,0.7359014749526978
51729,1441.64501953125,374.6460266113281,0.7369264364242554
51749,1443.0020751953125,375.8775634765625,0.7369264364242554
51769,1444.359130859375,377.1091003417969,0.7369264364242554
51789,1445.771484375,378.3934020996094,0.7379512786865234
51809,1447.1273193359375,379.6263122558594,0.7379512786865234
51829,1448.59619140625,380.96197509765625,0.7379512786865234
51849,1449.9520263671875,382.19488525390625,0.7379512786865234
51869,1451.3052978515625,383.4305725097656,0.7400011420249939
51889,1452.71630859375,384.71630859375,0.7389761805534363
51909,1454.1259765625,386.0035095214844,0.7400011420249939
51929,1455.476806640625,387.2419738769531,0.7420510053634644
51949,1456.882568359375,388.5334777832031,0.7430758476257324
51969,1458.2320556640625,389.7733459472656,0.7430758476257324
51989,1459.636474609375,391.0663146972656,0.7441007494926453
52009,1460.9847412109375,392.30755615234375,0.7441006898880005
52029,1462.3878173828125,393.6019592285156,0.7451256513595581
52049,1463.78955078125,394.8977966308594,0.7461506128311157
52069,1465.13525390625,396.14178466796875,0.7461506128311157
52089,1466.53564453125,397.4390563964844,0.7471755743026733
52109,1467.9346923828125,398.7377624511719,0.7482004761695862
52129,1469.3350830078125,400.0350341796875,0.7471755743026733
52149,1470.734130859375,401.333740234375,0.7482004761695862
52169,1472.1319580078125,402.6338806152344,0.7492254376411438
52189,1473.585693359375,403.98602294921875,0.7492254376411438
52209,1474.982177734375,405.28759765625,0.7502503395080566
52229,1476.32275390625,406.537109375,0.7502502202987671
52249,1477.7178955078125,407.8401184082031,0.7512750625610352
52269,1479.0572509765625,409.09100341796875,0.7512749433517456
52289,1480.5081787109375,410.44610595703125,0.7512748837471008
52309,1481.9019775390625,411.7505187988281,0.7522997856140137
52329,1483.29443359375,413.0563659667969,0.7533246278762817
52349,1484.685546875,414.3636474609375,0.7543496489524841
52369,1486.0780029296875,415.66949462890625,0.7533246278762817
52389,1487.4691162109375,416.9767761230469,0.7543496489524841
52409,1488.85888671875,418.2854919433594,0.7553746104240417
52429,1490.247314453125,419.5956115722656,0.7563995718955994
52449,1491.6343994140625,420.90716552734375,0.7574245929718018
52469,1493.0228271484375,422.21728515625,0.7563996911048889
52489,1494.409912109375,423.5288391113281,0.7574246525764465
52509,1495.795654296875,424.841796875,0.7584496140480042
52529,1497.1800537109375,426.15618896484375,0.7594745755195618
52549,1498.6197509765625,427.5231628417969,0.7594745755195618
52569,1499.94873046875,428.78497314453125,0.7594745755195618
52589,1501.331787109375,430.10076904296875,0.7604994773864746
52609,1502.6595458984375,431.36395263671875,0.7604994773864746
52629,1503.9873046875,432.62713623046875,0.7604994773864746
52649,1505.3717041015625,433.9415283203125,0.7594744563102722
52669,1506.70068359375,435.2033386230469,0.7594743967056274
52689,1508.0296630859375,436.46514892578125,0.7594743967056274
52709,1509.4693603515625,437.8321228027344,0.7594743967056274
52729,1510.79833984375,439.09393310546875,0.7594743967056274
52749,1512.18408203125,440.4068908691406,0.7584494352340698
52769,1513.514404296875,441.6673583984375,0.7584494352340698
52789,1514.8988037109375,442.98175048828125,0.7594743967056274
52809,1516.227783203125,444.2435607910156,0.7594743967056274
52829,1517.5567626953125,445.50537109375,0.7594743967056274
52849,1518.9425048828125,446.8183288574219,0.7584494352340698
52869,1520.326904296875,448.1327209472656,0.7594743967056274
52889,1521.6558837890625,449.39453125,0.7594743967056274
52909,1522.98486328125,450.6563415527344,0.7594743967056274
52929,1524.37060546875,451.96929931640625,0.7584494352340698
52949,1525.7550048828125,453.28369140625,0.7594743967056274
52969,1527.1407470703125,454.5966491699219,0.7584494352340698
52989,1528.4710693359375,455.85711669921875,0.7584494352340698
53009,1529.85546875,457.1715087890625,0.7594743967056274
53029,1531.1844482421875,458.4333190917969,0.7594743967056274
53049,1532.5701904296875,459.74627685546875,0.7584494352340698
53069,1533.8463134765625,460.9529113769531,0.7574244141578674
53089,1535.1778564453125,462.2120056152344,0.7574244141578674
53109,1536.5662841796875,463.5221252441406,0.756399393081665
53129,1537.8448486328125,464.72613525390625,0.7553743720054626
53149,1539.178955078125,465.98248291015625,0.7553743720054626
53169,1540.570068359375,467.2897644042969,0.7543492913246155
53189,1542.016845703125,468.6493225097656,0.7543492913246155
53209,1543.352294921875,469.904296875,0.7543492913246155
53229,1544.687744140625,471.1592712402344,0.7543492913246155
53249,1546.134521484375,472.5188293457031,0.7543492913246155
53269,1547.5269775390625,473.8246765136719,0.7533242702484131
53289,1548.97509765625,475.1827697753906,0.7533242702484131
53309,1550.311767578125,476.4364013671875,0.7533242702484131
53329,1551.7598876953125,477.79449462890625,0.7533242702484131
53349,1553.2080078125,479.152587890625,0.7533242702484131
53369,1554.59912109375,480.4598693847656,0.7543491721153259
53389,1556.0458984375,481.8194274902344,0.7543491125106812
53409,1557.49267578125,483.1789855957031,0.7543491125106812
53429,1558.9366455078125,484.54150390625,0.7563990354537964
53449,1560.380615234375,485.9040222167969,0.7563990354537964
53469,1561.7677001953125,487.215576171875,0.757423996925354
53489,1563.210205078125,488.57958984375,0.757423996925354
53509,1564.6527099609375,489.943603515625,0.757423996925354
53529,1566.0384521484375,491.2565612792969,0.7584490180015564
53549,1567.5335693359375,492.6761169433594,0.759473979473114
53569,1568.9732666015625,494.0430908203125,0.759473979473114
53589,1570.4129638671875,495.4100646972656,0.759473979473114
53609,1571.8526611328125,496.77703857421875,0.759473979473114
53629,1573.2923583984375,498.1440124511719,0.759473979473114
53649,1574.6781005859375,499.45697021484375,0.7584490776062012
53669,1576.1192626953125,500.82244873046875,0.758449137210846
53689,1577.50634765625,502.1340026855469,0.7574242353439331
53709,1578.9488525390625,503.4980163574219,0.7574242353439331
53729,1580.391357421875,504.8620300292969,0.7574242353439331
53749,1581.77978515625,506.1721496582031,0.7563993334770203
53769,1583.2237548828125,507.5346984863281,0.7563993334770203
53789,1584.613525390625,508.8434143066406,0.7553743720054626
53809,1586.001953125,510.1535339355469,0.7563993334770203
53829,1587.3917236328125,511.4622497558594,0.7553743720054626
53849,1588.7828369140625,512.76953125,0.7543492913246155
53869,1590.172607421875,514.0782470703125,0.7553743124008179
53889,1591.563720703125,515.385498046875,0.7543492913246155
53909,1592.899169921875,516.6405029296875,0.7543492913246155
53929,1594.345947265625,518.0000610351562,0.7543492913246155
53949,1595.792724609375,519.359619140625,0.7543492913246155
53969,1597.128173828125,520.6146240234375,0.7543492913246155
53989,1598.5179443359375,521.92333984375,0.7553743124008179
54009,1599.9090576171875,523.2305908203125,0.7543492913246155
54029,1601.301513671875,524.5364379882812,0.7533242702484131
54049,1602.6953125,525.8408813476562,0.7522993087768555
54069,1604.144775390625,527.197509765625,0.7522993087768555
54089,1605.4827880859375,528.4497680664062,0.7522993087768555
54109,1606.93505859375,529.8034057617188,0.7502493858337402
54129,1608.3873291015625,531.1570434570312,0.7502493262290955
54149,1609.782470703125,532.4600219726562,0.7512742280960083
54169,1611.2333984375,533.8151245117188,0.7512742280960083
54189,1612.6298828125,535.11669921875,0.7502491474151611
54209,1614.0821533203125,536.4703369140625,0.7502490878105164
54229,1615.47998046875,537.7704467773438,0.7492241263389587
54249,1616.9337158203125,539.12255859375,0.7492241263389587
54269,1618.387451171875,540.4746704101562,0.7492241263389587
54289,1619.8411865234375,541.8267822265625,0.7492241263389587
54309,1621.294921875,543.1788940429688,0.7492241263389587
54329,1622.6939697265625,544.4776000976562,0.7481991052627563
54349,1624.091796875,545.7777099609375,0.7492239475250244
54369,1625.5455322265625,547.1298217773438,0.7492239475250244
54389,1626.9420166015625,548.431396484375,0.7502487897872925
54409,1628.394287109375,549.7850341796875,0.7502487301826477
54429,1629.8465576171875,551.138671875,0.7502486705780029
54449,1631.2960205078125,552.4953002929688,0.7522984743118286
54469,1632.7454833984375,553.8519287109375,0.7522984147071838
54489,1634.1922607421875,555.2114868164062,0.7543482184410095
54509,1635.6390380859375,556.571044921875,0.7543481588363647
54529,1637.0858154296875,557.9306030273438,0.75434809923172
54549,1638.4212646484375,559.1856079101562,0.7543480396270752
54569,1639.81103515625,560.4943237304688,0.7553730010986328
54589,1641.25634765625,561.8553466796875,0.7553730010986328
54609,1642.644775390625,563.1654663085938,0.7563978433609009
54629,1644.0318603515625,564.4769897460938,0.7574228048324585
54649,1645.4176025390625,565.7899780273438,0.7584477663040161
54669,1646.8587646484375,567.1554565429688,0.7584477663040161
54689,1648.2431640625,568.4698486328125,0.759472668170929
54709,1649.626220703125,569.78564453125,0.7604975700378418
54729,1651.0079345703125,571.1028442382812,0.7615225315093994
54749,1652.3909912109375,572.4186401367188,0.7604975700378418
54769,1653.829345703125,573.787109375,0.7604975700378418
54789,1655.2677001953125,575.1555786132812,0.7604975700378418
54809,1656.7060546875,576.5240478515625,0.7604975700378418
54829,1658.1444091796875,577.8925170898438,0.7604975700378418
54849,1659.582763671875,579.260986328125,0.7604975700378418
54869,1661.0211181640625,580.6294555664062,0.7604975700378418
54889,1662.45947265625,581.9979248046875,0.7604975700378418
54909,1663.8978271484375,583.3663940429688,0.7604975700378418
54929,1665.3929443359375,584.7859497070312,0.7594726085662842
54949,1666.8326416015625,586.1528930664062,0.7594726085662842
54969,1668.2723388671875,587.5198364257812,0.7594726085662842
54989,1669.7689208984375,588.9378662109375,0.7584475874900818
55009,1671.2100830078125,590.3033447265625,0.758447527885437
55029,1672.6512451171875,591.6688232421875,0.758447527885437
55049,1674.038330078125,592.9803466796875,0.7574225664138794
55069,1675.4808349609375,594.3443603515625,0.7574225664138794
55089,1676.8665771484375,595.6573486328125,0.758447527885437
55109,1678.3077392578125,597.0228271484375,0.758447527885437
55129,1679.7489013671875,598.3883056640625,0.758447527885437
55149,1681.13330078125,599.7026977539062,0.7594725489616394
55169,1682.516357421875,601.0184936523438,0.7604975700378418
55189,1683.9007568359375,602.3328857421875,0.7594726085662842
55209,1685.2838134765625,603.648681640625,0.7604975700378418
55229,1686.223388671875,604.5443725585938,0.7615225315093994
55249,1686.941162109375,605.2300415039062,0.7625474333763123
55269,1687.603759765625,605.8629760742188,0.7625473737716675
55289,1688.15478515625,606.3915405273438,0.7645972371101379
55309,1688.705810546875,606.9201049804688,0.7645972371101379
55329,1689.1466064453125,607.3429565429688,0.7645972371101379
55349,1689.64208984375,607.8192138671875,0.7656221389770508
55369,1690.08251953125,608.2425537109375,0.7656221389770508
55389,1690.5775146484375,608.7192993164062,0.7666470408439636
55409,1691.0174560546875,609.14306640625,0.7666469812393188
55429,1691.402099609375,609.5142822265625,0.7676719427108765
55449,1691.8416748046875,609.9384765625,0.7676719427108765
55469,1692.225830078125,610.31005859375,0.7686969041824341
55489,1692.6640625,610.7356567382812,0.7707467675209045
55509,1693.0478515625,611.107666015625,0.7697217464447021
55529,1693.4312744140625,611.4800415039062,0.7707467079162598
55549,1693.8143310546875,611.852783203125,0.7717717289924622
55569,1694.197021484375,612.2259521484375,0.7727966904640198
55589,1694.579345703125,612.5994873046875,0.7738215327262878
55609,1694.906982421875,612.919677734375,0.7738213539123535
55629,1695.2889404296875,613.2936401367188,0.7748461961746216
55649,1695.6163330078125,613.6141357421875,0.774846076965332
55669,1695.9979248046875,613.9884643554688,0.7758709788322449
55689,1696.3798828125,614.3624267578125,0.7748460173606873
55709,1696.707275390625,614.6829223632812,0.7748460173606873
55729,1697.089599609375,615.0564575195312,0.7738209962844849
55749,1697.417236328125,615.3766479492188,0.7738209366798401
55769,1697.7999267578125,615.7498168945312,0.7727960348129272
55789,1698.1829833984375,616.12255859375,0.7717710137367249
55809,1698.5113525390625,616.4420776367188,0.7717709541320801
55829,1698.9490966796875,616.8681030273438,0.7717709541320801
55849,1699.33251953125,617.240478515625,0.7707459926605225
55869,1699.770751953125,617.6660766601562,0.7707459926605225
55889,1700.208984375,618.0916748046875,0.7707459926605225
55909,1700.592041015625,618.4644165039062,0.7717709541320801
55929,1701.02978515625,618.8904418945312,0.7717709541320801
55949,1701.4124755859375,619.2636108398438,0.7727957963943481
55969,1701.8489990234375,619.6909790039062,0.774845540523529
55989,1702.2305908203125,620.0653076171875,0.7758704423904419
56009,1702.6116943359375,620.4400634765625,0.7768953442573547
56029,1702.992431640625,620.815185546875,0.7779203057289124
56049,1703.372802734375,621.190673828125,0.7789451479911804
56069,1703.6982421875,621.51318359375,0.7809950709342957
56089,1704.0775146484375,621.8898315429688,0.782020092010498
56109,1704.40185546875,622.21337890625,0.7840700149536133
56129,1704.7799072265625,622.5912475585938,0.7850949764251709
56149,1705.0496826171875,622.8613891601562,0.7861198782920837
56169,1705.48046875,623.2945556640625,0.7881696224212646
56189,1705.9112548828125,623.7277221679688,0.7881695032119751
56209,1706.2877197265625,624.1071166992188,0.7891945242881775
56229,1706.6104736328125,624.4323120117188,0.7891945242881775
56249,1707.040771484375,624.8659057617188,0.7891945242881775
56269,1707.4168701171875,625.2456665039062,0.7902194857597351
56289,1707.7392578125,625.5711669921875,0.7902194857597351
56309,1708.114990234375,625.9512939453125,0.7912444472312927
56329,1708.54443359375,626.3857421875,0.7912444472312927
56349,1708.866455078125,626.7116088867188,0.7912444472312927
56369,1709.2425537109375,627.0913696289062,0.7902194857597351
56389,1709.6182861328125,627.4714965820312,0.7912444472312927
56409,1709.9403076171875,627.79736328125,0.7912444472312927
56429,1710.2623291015625,628.1232299804688,0.7912444472312927
56449,1710.5843505859375,628.4490966796875,0.7912444472312927
56469,1711.0137939453125,628.883544921875,0.7912444472312927
56489,1711.3358154296875,629.2094116210938,0.7912444472312927
56509,1711.6578369140625,629.5352783203125,0.7912444472312927
56529,1712.033203125,629.9158325195312,0.7922693490982056
56549,1712.35498046875,630.2420043945312,0.7922693490982056
56569,1712.730712890625,630.6221313476562,0.7912442684173584
56589,1713.052734375,630.947998046875,0.7912442684173584
56609,1713.4281005859375,631.3285522460938,0.792269229888916
56629,1713.7498779296875,631.6547241210938,0.792269229888916
56649,1714.0716552734375,631.9808959960938,0.792269229888916
56669,1714.4473876953125,632.3610229492188,0.7912442684173584
56689,1714.7694091796875,632.6868896484375,0.7912442684173584
56709,1715.144775390625,633.0674438476562,0.792269229888916
56729,1715.466552734375,633.3936157226562,0.792269229888916
56749,1715.841552734375,633.7745361328125,0.7932942509651184
56769,1716.1629638671875,634.10107421875,0.7932942509651184
56789,1716.484375,634.4276123046875,0.7932942509651184
56809,1716.8057861328125,634.754150390625,0.7932942509651184
56829,1717.1802978515625,635.1354370117188,0.7943192720413208
56849,1717.5013427734375,635.4622802734375,0.7943192720413208
56869,1717.7691650390625,635.734375,0.7932942509651184
56889,1718.14453125,636.1149291992188,0.792269229888916
56909,1718.46630859375,636.4411010742188,0.792269229888916
56929,1718.7880859375,636.7672729492188,0.792269229888916
56949,1719.10986328125,637.0934448242188,0.792269229888916
56969,1719.431640625,637.4196166992188,0.792269229888916
56989,1719.7000732421875,637.691162109375,0.7912442684173584
57009,1720.076171875,638.0709228515625,0.790219247341156
57029,1720.3985595703125,638.3964233398438,0.7902191877365112
57049,1720.720947265625,638.721923828125,0.7902191877365112
57069,1720.9898681640625,638.992919921875,0.7891941666603088
57089,1721.3126220703125,639.318115234375,0.7891941666603088
57109,1721.6895751953125,639.6971435546875,0.7881691455841064
57129,1722.0126953125,640.02197265625,0.7881691455841064
57149,1722.2816162109375,640.29296875,0.7891941070556641
57169,1722.6043701171875,640.6181640625,0.7891941070556641
57189,1722.927734375,640.9426879882812,0.7871440649032593
57209,1723.2510986328125,641.2672119140625,0.7871440052986145
57229,1723.5208740234375,641.537353515625,0.7861189842224121
57249,1723.8446044921875,641.861572265625,0.7861189842224121
57269,1724.1146240234375,642.1314697265625,0.7850940227508545
57289,1724.438720703125,642.455322265625,0.7850940227508545
57309,1724.7091064453125,642.7249145507812,0.7840690612792969
57329,1724.979736328125,642.9942626953125,0.7830440402030945
57349,1725.30517578125,643.3167724609375,0.780994176864624
57369,1725.6851806640625,643.6926879882812,0.7799692153930664
57389,1725.9569091796875,643.9608764648438,0.778944194316864
57409,1726.2835693359375,644.2820434570312,0.776894211769104
57429,1726.6651611328125,644.6563720703125,0.7758691310882568
57449,1726.9927978515625,644.9765625,0.7738191485404968
57469,1727.3204345703125,645.2967529296875,0.7738190293312073
57489,1727.6488037109375,645.6162719726562,0.771769106388092
57509,1728.0322265625,645.9886474609375,0.7707441449165344
57529,1728.416015625,646.3606567382812,0.7697190642356873
57549,1728.6904296875,646.6260986328125,0.7686940431594849
57569,1729.019775390625,646.944580078125,0.7686939835548401
57589,1729.34912109375,647.2630615234375,0.7686939239501953
57609,1729.7882080078125,647.687744140625,0.7686938047409058
57629,1730.1728515625,648.0589599609375,0.7676688432693481
57649,1730.557861328125,648.4297485351562,0.7666438221931458
57669,1730.9432373046875,648.8001708984375,0.7656187415122986
57689,1731.3836669921875,649.2235107421875,0.7656186819076538
57709,1731.824951171875,649.6459350585938,0.7635688185691833
57729,1732.21142578125,650.01513671875,0.762543797492981
57749,1732.5982666015625,650.3839721679688,0.7615188360214233
57769,1733.09619140625,650.857666015625,0.760493814945221
57789,1733.4837646484375,651.2257080078125,0.7594688534736633
57809,1733.871826171875,651.5933227539062,0.7584438920021057
57829,1734.3153076171875,652.0134887695312,0.7584438920021057
57849,1734.7037353515625,652.3807373046875,0.7574189305305481
57869,1735.091796875,652.7483520507812,0.7584438920021057
57889,1735.480224609375,653.1156005859375,0.7574189305305481
57909,1735.924072265625,653.5352783203125,0.7574189305305481
57929,1736.367919921875,653.9549560546875,0.7574189305305481
57949,1736.8668212890625,654.4276123046875,0.7584438920021057
57969,1737.310302734375,654.8477783203125,0.7584438920021057
57989,1737.7537841796875,655.2679443359375,0.7584438920021057
58009,1738.252197265625,655.7411499023438,0.7594688534736633
58029,1738.6951904296875,656.1617431640625,0.7594688534736633
58049,1739.13818359375,656.5823364257812,0.7594688534736633
58069,1739.5811767578125,657.0029296875,0.7594688534736633
58089,1740.024169921875,657.4235229492188,0.7594688534736633
58109,1740.5230712890625,657.8961791992188,0.7584438920021057
58129,1740.966552734375,658.3163452148438,0.7584438920021057
58149,1741.4100341796875,658.7365112304688,0.7584438920021057
58169,1741.96435546875,659.26171875,0.7584438920021057
58189,1742.4078369140625,659.681884765625,0.7584438920021057
58209,1742.962158203125,660.2070922851562,0.7584438920021057
58229,1743.4615478515625,660.6792602539062,0.7574189305305481
58249,1744.016357421875,661.203857421875,0.7574189305305481
58269,1744.5711669921875,661.7284545898438,0.7574189305305481
58289,1745.071044921875,662.2000732421875,0.7563939690589905
58309,1745.5714111328125,662.6712036132812,0.7553690075874329
58329,1746.0712890625,663.142822265625,0.7563939690589905
58349,1746.5716552734375,663.6139526367188,0.7553690075874329
58369,1747.016357421875,664.03271484375,0.7553690075874329
58389,1747.5172119140625,664.5033569335938,0.7543440461158752
58409,1748.017578125,664.9744873046875,0.7553690075874329
58429,1748.4622802734375,665.3932495117188,0.7553690075874329
58449,1748.906982421875,665.81201171875,0.7553690075874329
58469,1749.4068603515625,666.2836303710938,0.7563939690589905
58489,1749.8511962890625,666.702880859375,0.7563939690589905
58509,1750.294677734375,667.123046875,0.7584438323974609
58529,1750.7930908203125,667.5962524414062,0.7594687938690186
58549,1751.236083984375,668.016845703125,0.7594687938690186
58569,1751.7340087890625,668.4905395507812,0.760493814945221
58589,1752.1766357421875,668.91162109375,0.760493814945221
58609,1752.7298583984375,669.4379272460938,0.760493814945221
58629,1753.1724853515625,669.8590087890625,0.760493814945221
58649,1753.6708984375,670.3322143554688,0.7594688534736633
58669,1754.224609375,670.8579711914062,0.7594688534736633
58689,1754.8343505859375,671.4356689453125,0.7584438920021057
58709,1755.333740234375,671.9078369140625,0.7574189305305481
58729,1755.777587890625,672.3275146484375,0.7574189305305481
58749,1756.3323974609375,672.8521118164062,0.7574189305305481
58769,1756.8883056640625,673.3756103515625,0.7553690075874329
58789,1757.3330078125,673.7943725585938,0.7553690075874329
58809,1757.8338623046875,674.2650146484375,0.7543440461158752
58829,1758.3350830078125,674.735107421875,0.7533190846443176
58849,1758.8367919921875,675.2047119140625,0.7522940039634705
58869,1759.3380126953125,675.6748046875,0.7533189654350281
58889,1759.8397216796875,676.1444091796875,0.7522939443588257
58909,1760.397216796875,676.6661987304688,0.7522939443588257
58929,1760.84326171875,677.0836181640625,0.7522939443588257
58949,1761.344482421875,677.5537109375,0.7533188462257385
58969,1761.9014892578125,678.0760498046875,0.7533188462257385
58989,1762.40234375,678.5466918945312,0.7543437480926514
59009,1762.9027099609375,679.017822265625,0.755368709564209
59029,1763.4586181640625,679.5413208007812,0.755368709564209
59049,1763.95849609375,680.012939453125,0.7563936710357666
59069,1764.513916015625,680.5369873046875,0.7563936710357666
59089,1765.0693359375,681.06103515625,0.7563936710357666
59109,1765.5687255859375,681.533203125,0.7574186325073242
59129,1766.0125732421875,681.952880859375,0.7574186325073242
59149,1766.5673828125,682.4774780273438,0.7574186325073242
59169,1767.1221923828125,683.0020751953125,0.7574186325073242
59189,1767.6220703125,683.4736938476562,0.7563936710357666
59209,1768.1214599609375,683.9458618164062,0.7574186325073242
59229,1768.67626953125,684.470458984375,0.7574186325073242
59249,1769.1751708984375,684.943115234375,0.7584436535835266
59269,1769.7294921875,685.4683227539062,0.7584436535835266
59289,1770.2279052734375,685.9415283203125,0.7594686150550842
59309,1770.7816162109375,686.46728515625,0.7594686150550842
59329,1771.279541015625,686.9409790039062,0.7604935169219971
59349,1771.832763671875,687.46728515625,0.7604934573173523
59369,1772.3311767578125,687.9404907226562,0.7594684958457947
59389,1772.774169921875,688.361083984375,0.7594684958457947
59409,1773.327880859375,688.8868408203125,0.7594684958457947
59429,1773.8826904296875,689.4114379882812,0.7574186325073242
59449,1774.4375,689.93603515625,0.7574186325073242
59469,1774.9373779296875,690.4076538085938,0.7563936710357666
59489,1775.437744140625,690.8787841796875,0.755368709564209
59509,1775.99365234375,691.4022827148438,0.755368709564209
59529,1776.5506591796875,691.9246215820312,0.7533188462257385
59549,1777.0523681640625,692.3942260742188,0.7522937655448914
59569,1777.5535888671875,692.8643188476562,0.7533186078071594
59589,1778.0552978515625,693.3339233398438,0.752293586730957
59609,1778.5574951171875,693.802978515625,0.7512685060501099
59629,1779.00390625,694.2199096679688,0.7512685060501099
59649,1779.506591796875,694.6884765625,0.7502435445785522
59669,1780.0087890625,695.1575317382812,0.7512685060501099
59689,1780.6231689453125,695.730224609375,0.7502435445785522
59709,1781.1817626953125,696.2508544921875,0.7502435445785522
59729,1781.795654296875,696.8241577148438,0.7512685060501099
59749,1782.3536376953125,697.3453369140625,0.7512685060501099
59769,1782.9669189453125,697.9192504882812,0.7522934079170227
59789,1783.580810546875,698.4925537109375,0.7512683868408203
59809,1784.194091796875,699.0664672851562,0.7522932887077332
59829,1784.8067626953125,699.6410522460938,0.753318190574646
59849,1785.47509765625,700.2678833007812,0.753318190574646
59869,1786.087158203125,700.8430786132812,0.7543430924415588
59889,1786.6998291015625,701.4176635742188,0.7533180713653564
59909,1787.2568359375,701.9400024414062,0.7533180713653564
59929,1787.9251708984375,702.5668334960938,0.7533180713653564
59949,1788.483154296875,703.0880126953125,0.751268208026886
59969,1789.154052734375,703.7120971679688,0.7492182850837708
59989,1789.7696533203125,704.2835083007812,0.7481932640075684
60009,1790.330322265625,704.8018188476562,0.7461434602737427
60029,1790.8909912109375,705.3201293945312,0.7461434602737427
60049,1791.509521484375,705.8883666992188,0.7430686354637146
60069,1792.07177734375,706.4049682617188,0.7430686354637146
60089,1792.6920166015625,706.9713134765625,0.7399937510490417
60109,1793.311767578125,707.538330078125,0.7410186529159546
60129,1793.876220703125,708.0526123046875,0.7389686107635498
60149,1794.440673828125,708.56689453125,0.738968551158905
60169,1795.0621337890625,709.1319580078125,0.7379435896873474
60189,1795.6829833984375,709.6976928710938,0.7389684915542603
60209,1796.2474365234375,710.2119750976562,0.7389684319496155
60229,1796.868896484375,710.7770385742188,0.7379434108734131
60249,1797.433837890625,711.290771484375,0.7379434108734131
60269,1798.11181640625,711.9072265625,0.7379434108734131
60289,1798.6767578125,712.4209594726562,0.7379434108734131
60309,1799.354736328125,713.0374145507812,0.7379434108734131
60329,1799.919677734375,713.5511474609375,0.7379434108734131
60349,1800.59765625,714.1676025390625,0.7379434108734131
60369,1801.2197265625,714.7320556640625,0.7369184494018555
60389,1801.8983154296875,715.3478393554688,0.7369184494018555
60409,1802.5208740234375,715.91162109375,0.7358934283256531
60429,1803.2012939453125,716.5252685546875,0.7338436245918274
60449,1803.8255615234375,717.087158203125,0.7328187227249146
60469,1804.506591796875,717.7001342773438,0.7328187227249146
60489,1805.18896484375,718.3117065429688,0.7307688593864441
60509,1805.871337890625,718.9232788085938,0.7307688593864441
60529,1806.4974365234375,719.4832763671875,0.7297438383102417
60549,1807.180419921875,720.0941772460938,0.7297437787055969
60569,1807.8070068359375,720.6535034179688,0.7287187576293945
60589,1808.4906005859375,721.263671875,0.7287187576293945
60609,1809.1741943359375,721.8738403320312,0.7287187576293945
60629,1809.8013916015625,722.4324951171875,0.7276937365531921
60649,1810.485595703125,723.0419921875,0.7276937365531921
60669,1811.1134033203125,723.6000366210938,0.7266687154769897
60689,1811.7982177734375,724.2088012695312,0.7266687154769897
60709,1812.4254150390625,724.7674560546875,0.7276936769485474
60729,1813.05322265625,725.3255004882812,0.7266687154769897
60749,1813.6239013671875,725.8328247070312,0.7266687154769897
60769,1814.3087158203125,726.4415893554688,0.7266687154769897
60789,1814.93701171875,726.9989624023438,0.7256436944007874
60809,1815.6224365234375,727.6070556640625,0.7256436347961426
60829,1816.2513427734375,728.163818359375,0.7246187329292297
60849,1816.879638671875,728.72119140625,0.7256436347961426
60869,1817.4508056640625,729.2279052734375,0.7256436347961426
60889,1818.0797119140625,729.78466796875,0.7246187329292297
60909,1818.5947265625,730.2396850585938,0.7235937118530273
60929,1819.16796875,730.7440795898438,0.7215438485145569
60949,1819.7991943359375,731.2982788085938,0.720518946647644
60969,1820.373046875,731.8020629882812,0.720518946647644
60989,1821.0047607421875,732.3555908203125,0.7194939851760864
61009,1821.5791015625,732.8587646484375,0.7194939851760864
61029,1822.1534423828125,733.3619384765625,0.7194939851760864
61049,1822.727783203125,733.8651123046875,0.7194939851760864
61069,1823.4169921875,734.4689331054688,0.7194939851760864
61089,1823.9913330078125,734.9721069335938,0.7194939851760864
61109,1824.6805419921875,735.575927734375,0.7194939851760864
61129,1825.3128662109375,736.1287841796875,0.7184690237045288
61149,1825.944580078125,736.6823120117188,0.7194939851760864
61169,1826.576904296875,737.2351684570312,0.7184690237045288
61189,1827.2086181640625,737.7886962890625,0.7194939851760864
61209,1827.8409423828125,738.341552734375,0.7184690237045288
61229,1828.415771484375,738.8441772460938,0.7184690237045288
61249,1829.0474853515625,739.397705078125,0.7194939851760864
61269,1829.621826171875,739.90087890625,0.7194939851760864
61289,1830.2530517578125,740.455078125,0.720518946647644
61309,1830.8836669921875,741.0098876953125,0.7215439081192017
61329,1831.399169921875,741.46435546875,0.7225688695907593
61349,1832.0286865234375,742.0204467773438,0.7235938310623169
61369,1832.6009521484375,742.5260009765625,0.7235938310623169
61389,1833.28759765625,743.1326904296875,0.7235938310623169
61409,1833.85986328125,743.6382446289062,0.7235938310623169
61429,1834.3743896484375,744.09375,0.7246187329292297
61449,1835.00390625,744.6498413085938,0.7235937118530273
61469,1835.5184326171875,745.1053466796875,0.7246187329292297
61489,1836.0902099609375,745.6115112304688,0.7246187329292297
61509,1836.6619873046875,746.11767578125,0.7246187329292297
61529,1837.2337646484375,746.6238403320312,0.7246187329292297
61549,1837.8055419921875,747.1300048828125,0.7246187329292297
61569,1838.319580078125,747.5860595703125,0.7256436347961426
61589,1838.9473876953125,748.1441040039062,0.7266685366630554
61609,1839.51806640625,748.6514282226562,0.7266684770584106
61629,1840.0887451171875,749.1587524414062,0.7266684770584106
61649,1840.659423828125,749.6660766601562,0.7266684770584106
61669,1841.2301025390625,750.1734008789062,0.7266684770584106
61689,1841.6866455078125,750.5792236328125,0.7266684770584106
61709,1842.25732421875,751.0865478515625,0.7266684770584106
61729,1842.7138671875,751.4923706054688,0.7266684770584106
61749,1843.22705078125,751.949462890625,0.7276933789253235
61769,1843.73974609375,752.4071044921875,0.7287183403968811
61789,1844.251953125,752.865234375,0.7297433018684387
61809,1844.707275390625,753.2724609375,0.7297433018684387
61829,1845.2763671875,753.781494140625,0.7297433018684387
61849,1845.7880859375,754.2401733398438,0.7307682633399963
61869,1846.242919921875,754.6478881835938,0.7307682633399963
61889,1846.8115234375,755.1575317382812,0.7307682633399963
61909,1847.32275390625,755.6167602539062,0.731793224811554
61929,1847.83447265625,756.075439453125,0.7307682633399963
61949,1848.345703125,756.53466796875,0.731793224811554
61969,1848.8565673828125,756.994384765625,0.7328182458877563
61989,1849.3677978515625,757.45361328125,0.7317932844161987
62009,1849.878662109375,757.913330078125,0.7328182458877563
62029,1850.332763671875,758.3219604492188,0.7328182458877563
62049,1850.8431396484375,758.7822265625,0.733843207359314
62069,1851.2967529296875,759.1913452148438,0.733843207359314
62089,1851.806640625,759.652099609375,0.7348682284355164
62109,1852.2598876953125,760.0617065429688,0.7348682284355164
62129,1852.769287109375,760.5230102539062,0.7358931303024292
62149,1853.2220458984375,760.9330444335938,0.7358931303024292
62169,1853.73095703125,761.3948364257812,0.736918032169342
62189,1854.12646484375,761.7544555664062,0.7379429340362549
62209,1854.578369140625,762.1654052734375,0.7379429340362549
62229,1855.0302734375,762.5763549804688,0.7379429340362549
62249,1855.5382080078125,763.0392456054688,0.7389678955078125
62269,1855.98974609375,763.45068359375,0.7389678955078125
62289,1856.4412841796875,763.8621215820312,0.7389678955078125
62309,1856.892822265625,764.2735595703125,0.7389678955078125
62329,1857.3443603515625,764.6849975585938,0.7389678955078125
62349,1857.6263427734375,764.9424438476562,0.7399928569793701
62369,1858.020751953125,765.3032836914062,0.741017758846283
62389,1858.3021240234375,765.561279296875,0.7420426607131958
62409,1858.6397705078125,765.8709106445312,0.742042601108551
62429,1858.9215087890625,766.128662109375,0.7410175800323486
